[gd_scene load_steps=5 format=2]

[ext_resource path="res://assets/repair/kitchen sink/sink 2 v0.2i.png" type="Texture" id=1]
[ext_resource path="res://src/Item/Item.gd" type="Script" id=2]
[ext_resource path="res://assets/repair/kitchen sink/sink 2 v0.2f.png" type="Texture" id=3]
[ext_resource path="res://assets/repair/kitchen sink/sink 2 v0.2r.png" type="Texture" id=4]

[node name="KitchenSink" type="Node2D"]
script = ExtResource( 2 )

[node name="Bad" type="Sprite" parent="."]
scale = Vector2( 0.15, 0.15 )
texture = ExtResource( 1 )

[node name="Repaired" type="Sprite" parent="."]
visible = false
scale = Vector2( 0.15, 0.15 )
texture = ExtResource( 4 )

[node name="Destroyed" type="Sprite" parent="."]
visible = false
scale = Vector2( 0.15, 0.15 )
texture = ExtResource( 3 )
